{
    "assignments": [
        { "name": "Fishish project", "completed": false, "id": 1, "tag": "science" },
        { "name": "Read chapter 4", "completed": true, "id": 2, "tag": "math" },
        { "name": "Turn in homework", "completed": false, "id": 3, "tag": "math" },
        { "name": "Do Labs", "completed": false, "id": 4, "tag": "science" },
        { "name": "Read book", "completed": false, "id": 5, "tag": "english" }
    ]
}